{  
   "numFound":58,
   "page":1,
   "pages":3,
   "filters_applied":{
       "search":[
           {"text":"Titolo"},
           {"title":"David"},
           {"author":"Michelangelo"},
           {"title":"Colosseo"}
       ],
       "filters":[
           {"category":"Pittori"},
           {"author":"Michelangelo"},
           {"author":"Raffaello"},
           {"author":"Dante Alighieri"},
           {"type":"IMAGE"}
       ]
   },
   "filters":{  
      "type":[  
         {  
            "label":"IMAGE",
            "num":50
         },
         {  
            "label":"CONTAINER",
            "num":8
         }
      ],
      "author":[  
         {  
            "label":"Michelangelo",
            "num":20
         },
         {  
            "label":"Raffaello",
            "num":8
         },
         {  
            "label":"Dante Alighieri",
            "num":17
         }
      ],
      "category":[  
         {  
            "label":"Dipinti",
            "num":37
         },
         {  
            "label":"Sculture",
            "num":3
         },
         {  
            "label":"Libri",
            "num":17
         }
      ],
      "tag":[]
   },
   "results":[  
      {  
         "title":"Cenacolo",
         "file_extension":"jpeg",
         "thumbnail":"56b05bfa2143c_da-vinci_cenacolo.jpeg",
         "type":"IMAGE",
         "id":607,
         "related_collections":[  
            675
         ],
         "datastream_num":2,
         "bytestream_num":2,
         "date":"2016-02-02",
         "_version_":1525061621625389000
      },
      {  
         "title":"Colosseo",
         "file_extension":"jpeg",
         "thumbnail":"56b05bf666d2b_colosseo.jpeg",
         "type":"IMAGE",
         "id":592,
         "related_collections":[  
            675
         ],
         "datastream_num":2,
         "bytestream_num":2,
         "date":"2016-02-02",
         "_version_":1525050693036015600
      },
      {  
         "title":"Crocifissione di San Pietro",
         "file_extension":"jpeg",
         "thumbnail":"56b05cae825ce_58 michelangelo buonarroti-cocifissione san pietro.jpg",
         "type":"IMAGE",
         "id":635,
         "datastream_num":1,
         "bytestream_num":2,
         "date":"2016-02-02",
         "_version_":1525047596566970400
      },
      {  
         "title":"David",
         "file_extension":"jpeg",
         "thumbnail":"56b05bf9b21cc_i-musei-piu-importanti-di-firenze_a74206fb6fef325c3edfb8edc91d8210.jpg",
         "type":"IMAGE",
         "id":602,
         "media_parents":[  
            597
         ],
         "datastream_num":2,
         "bytestream_num":2,
         "date":"2016-02-02",
         "_version_":1525047698771673000
      },
      {  
         "title":"David",
         "file_extension":"jpeg",
         "thumbnail":"56b05cb215054_david-head.jpg",
         "type":"IMAGE",
         "id":649,
         "media_parents":[  
            597
         ],
         "datastream_num":2,
         "bytestream_num":2,
         "date":"2016-02-02",
         "_version_":1525047696540303400
      },
      {  
         "title":"David",
         "file_extension":"jpeg",
         "thumbnail":"56b05bf7e4346_scultura1.jpg",
         "type":"IMAGE",
         "id":597,
         "media_childs":[  
            649,
            602
         ],
         "datastream_num":2,
         "bytestream_num":2,
         "date":"2016-02-02",
         "_version_":1525047699390333000
      },
      {  
         "title":"Dipinti",
         "file_extension":"jpeg",
         "thumbnail":"56b05c66905fe_858px-Portrait_de_l'artiste_avec_un_ami,_by_Raffaello_Sanzio,_from_C2RMF_retouched.jpg",
         "type":"IMAGE",
         "id":617,
         "datastream_num":1,
         "bytestream_num":2,
         "date":"2016-02-02",
         "_version_":1525047466835050500
      },
      {  
         "title":"Dipinti",
         "file_extension":"jpeg",
         "thumbnail":"56b05c658ae41_angels-1200x800.jpg",
         "type":"IMAGE",
         "id":612,
         "datastream_num":2,
         "bytestream_num":2,
         "date":"2016-02-02",
         "_version_":1525047464794521600
      },
      {  
         "title":"Dipinti",
         "file_extension":"jpeg",
         "thumbnail":"56b05c6bad54e_raffaello_sanzio_sacra_famiglia_con_agnello.jpg",
         "type":"IMAGE",
         "id":630,
         "datastream_num":2,
         "bytestream_num":2,
         "date":"2016-02-02",
         "_version_":1525047477592391700
      },
      {  
         "title":"Dipinti",
         "file_extension":"jpeg",
         "thumbnail":"56b05c66b2fa1_Raffaello-Agnolo Doni.jpg",
         "type":"IMAGE",
         "id":621,
         "datastream_num":1,
         "bytestream_num":2,
         "date":"2016-02-02",
         "_version_":1525047469059080200
      },
      {  
         "title":"Dipinti",
         "file_extension":"jpeg",
         "thumbnail":"56b05c6858da7_Raffaello-sposalizio.jpg",
         "type":"IMAGE",
         "id":625,
         "datastream_num":2,
         "bytestream_num":2,
         "date":"2016-02-02",
         "_version_":1525047474163548200
      },
      {  
         "title":"Il giudizio universale",
         "file_extension":"jpeg",
         "thumbnail":"56b05caff02c7_08-Michelangelo-Buonarroti-L-a-Cappella-Sistina-Particolare.jpg",
         "type":"IMAGE",
         "id":639,
         "datastream_num":2,
         "bytestream_num":2,
         "date":"2016-02-02",
         "_version_":1525047599734718500
      },
      {  
         "title":"La Divina Commedia",
         "file_extension":"jpeg",
         "thumbnail":"56b061ca88020_la-divina-comedia-dante-alighieri-_MLA-F-143327261_7646.jpg",
         "type":"CONTAINER",
         "id":654,
         "media_childs":[  
            659,
            660,
            669
         ],
         "datastream_num":2,
         "bytestream_num":4,
         "date":"2016-02-02",
         "_version_":1525049037749747700
      },
      {  
         "title":"La dama con l'ermellino",
         "file_extension":"jpeg",
         "thumbnail":"56b05cb0ae40a_893729627.jpg",
         "type":"IMAGE",
         "id":644,
         "datastream_num":2,
         "bytestream_num":2,
         "date":"2016-02-02",
         "_version_":1525047602542805000
      }
   ]
}